t 59
p 49
l 38
x 35
r 34
c 31
g 31
v 28
s 22
f 21
f 21
q 17
z 16
d 14
b 12
h 12
j 10
n 10
, 10
a 9
m 6
e 6
. 5
w 5
L 5
u 3
Q 3
B 3
F 2
R 2
o 2
5 2
A 2
X 2
_ 2
— 1
i 1
Y 1
: 1
N 1
{ 1
P 2
U 1
S 1
7 5
1 4
0 3
3 1
2 1
} 1
  97
 10
jrqgQLN{5BA5717B710X_3U0FB710X_PP1QQ2A7}


ETAOINSRHDLUCMFYWGPBVKXQJZ 	




